sim/seletor_tb.vcd
$date
	Fri Jun 26 08:48:13 2026
$end
$version
	Icarus Verilog
$end
$timescale
	1s
$end
$scope module seletor_tb $end
$var wire 1 ! S $end
$var reg 1 " D $end
$var reg 1 # E $end
$var reg 1 $ P $end
$scope module seletor $end
$var wire 3 % E [2:0] $end
$var wire 1 ! S $end
$upscope $end
$upscope $end
$enddefinitions $end
$comment Show the parameter values. $end
$dumpall
$end
#0
$dumpvars
b0 %
0$
0#
0"
1!
$end
#10
1$
#20
0$
1"
#30
1$
#40
0$
0"
b1 %
1#
#50
1$
#60
0$
1"
#70
1$
